Copia de seguridad/Carpeta_C/simulation/qsim/Multiplicador_con_signo.msim.vcd
$comment
	File created using the following command:
		vcd file Multiplicador_con_signo.msim.vcd -direction
$end
$date
	Fri Oct 31 18:32:34 2025
$end
$version
	ModelSim Version 10.1d
$end
$timescale
	1ps
$end
$scope module Multiplicador_con_signo_Block_vlg_vec_tst $end
$var reg 1 ! A0 $end
$var reg 1 " A1 $end
$var reg 1 # B0 $end
$var reg 1 $ B1 $end
$var reg 1 % CLK $end
$var wire 1 & NC $end
$var wire 1 ' P0 $end
$var wire 1 ( P1 $end
$var wire 1 ) P2 $end
$var wire 1 * P3 $end
$var wire 1 + sampler $end
$scope module i1 $end
$var wire 1 , gnd $end
$var wire 1 - vcc $end
$var wire 1 . unknown $end
$var tri1 1 / devclrn $end
$var tri1 1 0 devpor $end
$var tri1 1 1 devoe $end
$var wire 1 2 P0~output_o $end
$var wire 1 3 P1~output_o $end
$var wire 1 4 P2~output_o $end
$var wire 1 5 P3~output_o $end
$var wire 1 6 NC~output_o $end
$var wire 1 7 CLK~input_o $end
$var wire 1 8 A0~input_o $end
$var wire 1 9 inst12~feeder_combout $end
$var wire 1 : inst12~q $end
$var wire 1 ; B0~input_o $end
$var wire 1 < inst11~feeder_combout $end
$var wire 1 = inst11~q $end
$var wire 1 > 10~combout $end
$var wire 1 ? inst6~q $end
$var wire 1 @ A1~input_o $end
$var wire 1 A inst10~feeder_combout $end
$var wire 1 B inst10~q $end
$var wire 1 C 13|S~combout $end
$var wire 1 D inst9~q $end
$var wire 1 E inst14|S~0_combout $end
$var wire 1 F inst8~q $end
$var wire 1 G inst15|S~0_combout $end
$var wire 1 H inst7~q $end
$var wire 1 I B1~input_o $end
$var wire 1 J inst13~feeder_combout $end
$var wire 1 K inst13~q $end
$var wire 1 L inst15|Cout~0_combout $end
$upscope $end
$upscope $end
$enddefinitions $end
#0
$dumpvars
0!
0"
0#
0$
0%
0&
0'
0(
0)
0*
x+
0,
1-
x.
1/
10
11
02
03
04
05
06
07
08
09
0:
0;
0<
0=
0>
0?
0@
0A
0B
0C
0D
0E
0F
0G
0H
0I
0J
0K
0L
$end
#10000
1!
1#
18
1;
0+
19
1<
#15000
1%
17
1+
1=
1:
1>
#20000
0!
0#
08
0;
0+
09
0<
#30000
0%
07
1+
#40000
1"
1$
1@
1I
0+
1A
1J
#45000
1%
17
1+
1K
1B
0=
0:
1?
1E
0>
12
1'
#50000
0"
0$
0@
0I
0+
0A
0J
#60000
0%
07
1+
#70000
1!
1#
1"
1$
18
1;
1@
1I
0+
19
1<
1A
1J
#75000
1%
17
1+
1=
1:
1F
0?
0E
1>
14
02
1)
0'
1L
16
1&
#90000
0!
0#
0"
0$
0%
08
0;
0@
0I
07
0+
09
0<
0A
0J
#105000
1%
17
1+
0K
0B
0=
0:
0F
1?
0>
04
12
0)
1'
0L
06
0&
#120000
0%
07
0+
#130000
1!
1#
1"
1$
18
1;
1@
1I
1+
19
1<
1A
1J
#135000
1%
17
0+
1K
1B
1=
1:
0?
1>
02
0'
1L
16
1&
#150000
0%
07
1+
#160000
0!
0#
0"
0$
08
0;
0@
0I
0+
09
0<
0A
0J
#165000
1%
17
1+
0K
0B
0=
0:
1?
0>
12
1'
0L
06
0&
#180000
0%
07
0+
#195000
1%
17
1+
0?
02
0'
#210000
0%
07
0+
#225000
1%
17
1+
#240000
0%
07
0+
#250000
1!
1#
1"
1$
18
1;
1@
1I
1+
19
1<
1A
1J
#255000
1%
17
0+
1K
1B
1=
1:
1>
1L
16
1&
#270000
0%
07
1+
#280000
0!
0#
0"
0$
08
0;
0@
0I
0+
09
0<
0A
0J
#285000
1%
17
1+
0K
0B
0=
0:
1?
0>
12
1'
0L
06
0&
#300000
0%
07
0+
#310000
1!
1"
1$
18
1@
1I
1+
19
1A
1J
#315000
1%
17
0+
1K
1B
1:
0?
1C
02
0'
#330000
0%
07
1+
#340000
0!
0"
0$
08
0@
0I
0+
09
0A
0J
#345000
1%
17
1+
0K
0B
0:
1D
0C
13
1(
#360000
0%
07
0+
#370000
1!
1"
1$
18
1@
1I
1+
19
1A
1J
#375000
1%
17
0+
1K
1B
1:
0D
1C
03
0(
#390000
0%
07
1+
#405000
1%
17
0+
1D
13
1(
#410000
1#
1;
1+
1<
#420000
0%
07
0+
#430000
0!
0"
0$
0#
08
0@
0I
0;
1+
09
0A
0J
0<
#435000
1%
17
0+
0K
0B
0:
0C
#450000
0%
07
1+
#465000
1%
17
0+
0D
03
0(
#480000
0%
07
1+
#490000
1!
1"
1$
1#
18
1@
1I
1;
0+
19
1A
1J
1<
#495000
1%
17
1+
1K
1B
1=
1:
1>
1L
16
1&
#510000
0%
07
0+
#525000
1%
17
1+
1?
12
1'
#540000
0%
07
0+
#550000
0!
0"
0$
0#
08
0@
0I
0;
1+
09
0A
0J
0<
#555000
1%
17
0+
0K
0B
0=
0:
0>
0L
06
0&
#570000
0%
07
1+
#585000
1%
17
0+
0?
02
0'
#600000
0%
07
1+
#610000
1!
1"
1$
1#
18
1@
1I
1;
0+
19
1A
1J
1<
#615000
1%
17
1+
1K
1B
1=
1:
1>
1L
16
1&
#630000
0%
07
0+
#645000
1%
17
1+
1?
12
1'
#650000
0$
0#
0I
0;
0+
0J
0<
#660000
0%
07
1+
#670000
0!
0"
08
0@
0+
09
0A
#675000
1%
17
1+
0K
0B
0=
0:
0>
0L
06
0&
#690000
0%
07
0+
#700000
1!
1"
18
1@
1+
19
1A
#705000
1%
17
0+
1B
1:
0?
02
0'
#720000
1$
1#
0%
1I
1;
07
1+
1J
1<
#730000
0$
0#
0I
0;
0+
0J
0<
#735000
1%
17
1+
#740000
0!
0"
08
0@
0+
09
0A
#750000
0%
07
1+
#760000
1$
1#
1!
1"
1I
1;
18
1@
0+
1J
1<
19
1A
#765000
1%
17
1+
1K
1=
1>
1L
16
1&
#780000
0%
07
0+
#795000
1%
17
1+
1?
12
1'
#810000
0!
0"
0%
08
0@
07
0+
09
0A
#825000
1%
17
1+
0B
0:
1G
0>
0L
06
0&
#830000
0$
1!
1"
0I
18
1@
0+
0J
19
1A
#840000
0%
07
1+
#855000
1%
17
0+
0K
1B
1:
1H
0?
1E
1C
1>
15
02
1*
0'
#870000
1$
0%
1I
07
1+
1J
#880000
0#
0!
0;
08
0+
0<
09
#885000
1%
17
1+
1K
0=
0:
1F
1D
1?
0G
0C
0>
14
13
12
1)
1(
1'
#900000
0%
07
0+
#910000
0$
0I
1+
0J
#915000
1%
17
0+
0K
0H
0D
0?
0E
05
03
02
0*
0(
0'
#930000
0"
0%
0@
07
1+
0A
#945000
1%
17
0+
0B
0F
04
0)
#960000
0%
07
1+
#975000
1%
17
0+
#990000
0%
07
1+
