Carpeta_A/simulation/qsim/Sumador.msim.vcd
$comment
	File created using the following command:
		vcd file Sumador.msim.vcd -direction
$end
$date
	Sun Oct 26 13:37:44 2025
$end
$version
	ModelSim Version 10.1d
$end
$timescale
	1ps
$end
$scope module Sumador_vlg_vec_tst $end
$var reg 1 ! A $end
$var reg 1 " B $end
$var reg 1 # Cin $end
$var wire 1 $ Cout $end
$var wire 1 % S $end
$var wire 1 & sampler $end
$scope module i1 $end
$var wire 1 ' gnd $end
$var wire 1 ( vcc $end
$var wire 1 ) unknown $end
$var tri1 1 * devclrn $end
$var tri1 1 + devpor $end
$var tri1 1 , devoe $end
$var wire 1 - S~output_o $end
$var wire 1 . Cout~output_o $end
$var wire 1 / A~input_o $end
$var wire 1 0 B~input_o $end
$var wire 1 1 Cin~input_o $end
$var wire 1 2 S~0_combout $end
$var wire 1 3 Cout~0_combout $end
$upscope $end
$upscope $end
$enddefinitions $end
#0
$dumpvars
0!
0"
0#
0$
0%
x&
0'
1(
x)
1*
1+
1,
0-
0.
0/
00
01
02
03
$end
#20000
1!
1"
1/
10
0&
13
1.
1$
#40000
0!
0"
0/
00
1&
03
0.
0$
#50000
1#
11
0&
12
1-
1%
#70000
1!
1/
1&
13
02
1.
0-
1$
0%
#80000
0#
0!
01
0/
0&
03
0.
0$
#90000
1"
1!
10
1/
1&
13
1.
1$
#110000
0"
0!
00
0/
0&
03
0.
0$
#150000
1#
11
1&
12
1-
1%
#170000
0#
01
0&
02
0-
0%
#180000
1"
1!
10
1/
1&
13
1.
1$
