Carpeta_B/simulation/qsim/Multiplicador.msim.vcd
$comment
	File created using the following command:
		vcd file Multiplicador.msim.vcd -direction
$end
$date
	Sun Oct 26 19:14:30 2025
$end
$version
	ModelSim Version 10.1d
$end
$timescale
	1ps
$end
$scope module MultiplicadorBlock_vlg_vec_tst $end
$var reg 1 ! A0 $end
$var reg 1 " A1 $end
$var reg 1 # B0 $end
$var reg 1 $ B1 $end
$var wire 1 % P0 $end
$var wire 1 & P1 $end
$var wire 1 ' P2 $end
$var wire 1 ( P3 $end
$var wire 1 ) sampler $end
$scope module i1 $end
$var wire 1 * gnd $end
$var wire 1 + vcc $end
$var wire 1 , unknown $end
$var tri1 1 - devclrn $end
$var tri1 1 . devpor $end
$var tri1 1 / devoe $end
$var wire 1 0 P1~output_o $end
$var wire 1 1 P2~output_o $end
$var wire 1 2 P3~output_o $end
$var wire 1 3 P0~output_o $end
$var wire 1 4 A0~input_o $end
$var wire 1 5 A1~input_o $end
$var wire 1 6 B0~input_o $end
$var wire 1 7 B1~input_o $end
$var wire 1 8 13|S~combout $end
$var wire 1 9 inst14|Cout~0_combout $end
$var wire 1 : inst14|S~0_combout $end
$var wire 1 ; 10~combout $end
$upscope $end
$upscope $end
$enddefinitions $end
#0
$dumpvars
0!
0"
0#
0$
0%
0&
0'
0(
x)
0*
1+
x,
1-
1.
1/
00
01
02
03
04
05
06
07
08
09
0:
0;
$end
#20000
1!
1"
14
15
0)
#100000
1#
1$
16
17
1)
1;
19
13
11
1%
1'
#200000
0#
0$
06
07
0)
0;
09
03
01
0%
0'
#220000
0!
0"
04
05
1)
#260000
1#
1"
16
15
0)
18
10
1&
#280000
0#
0"
06
05
1)
08
00
0&
#340000
1$
1#
17
16
0)
#400000
0$
0#
07
06
1)
#500000
1"
15
0)
#540000
1!
0"
14
05
1)
#600000
0!
04
0)
#800000
1"
15
1)
#840000
1$
1!
17
14
0)
1:
18
12
10
1(
1&
#880000
0"
05
1)
0:
02
0(
#900000
0$
07
0)
08
00
0&
#980000
0!
04
1)
